{
  "images" : [
    {
      "idiom" : "universal",
      "scale" : "1x",
      "filename" : "Screen Shot 2015-06-29 at 10.49.44 AM.png"
    },
    {
      "idiom" : "universal",
      "scale" : "2x",
      "filename" : "Screen Shot 2015-06-29 at 10.49.44 AM-1.png"
    },
    {
      "idiom" : "universal",
      "scale" : "3x",
      "filename" : "Screen Shot 2015-06-29 at 10.49.44 AM-2.png"
    }
  ],
  "info" : {
    "version" : 1,
    "author" : "xcode"
  }
}